\contentsline {figure}{\numberline {1}{\ignorespaces Translations and rotations of a body in space.\relax }}{5}{figure.caption.3}% 
\contentsline {figure}{\numberline {2}{\ignorespaces Buckling of a beam under compressive load.\relax }}{6}{figure.caption.4}% 
\contentsline {figure}{\numberline {3}{\ignorespaces Buckling of a panel using finit elements.\relax }}{6}{figure.caption.4}% 
\contentsline {figure}{\numberline {4}{\ignorespaces Exemple of a predator-prey model.\relax }}{8}{figure.caption.5}% 
\contentsline {figure}{\numberline {5}{\ignorespaces Evolution of population over time.\relax }}{10}{figure.caption.6}% 
\contentsline {figure}{\numberline {6}{\ignorespaces Evolution of population over time.\relax }}{11}{figure.caption.7}% 
\contentsline {figure}{\numberline {7}{\ignorespaces 3D representation of Lorenz model.\relax }}{11}{figure.caption.8}% 
\contentsline {figure}{\numberline {8}{\ignorespaces Representation of a boundary layer.\relax }}{12}{figure.caption.9}% 
\contentsline {figure}{\numberline {9}{\ignorespaces Representation of a boundary layer.\relax }}{12}{figure.caption.10}% 
